…
This dataset has many variables that describe the MTA service at New York City subway stations. It includes the routes that each station serves, as well as entry/exit points, and ada compliance, among many other things. Thus far, the data cleaning steps that I have taken so far are: cleaning the names so that they are easy to read and are lower case snake, selecting the columns (variables) that are relevant to our analysis, and mutating the entry variable so that it is a logical variable. The dimension of the resulting dataset is 1868, 19 (that is 1868 rows x 19 columns). These data are not entirely tidy since the route variables can be futher simplified into more usable data based on the analyses that we want to conduct.

``` r
subway_data %>% 
  distinct(line, station_name) 
```

    ## # A tibble: 465 x 2
    ##    line     station_name            
    ##    <chr>    <chr>                   
    ##  1 4 Avenue 25th St                 
    ##  2 4 Avenue 36th St                 
    ##  3 4 Avenue 45th St                 
    ##  4 4 Avenue 53rd St                 
    ##  5 4 Avenue 59th St                 
    ##  6 4 Avenue 77th St                 
    ##  7 4 Avenue 86th St                 
    ##  8 4 Avenue 95th St                 
    ##  9 4 Avenue 9th St                  
    ## 10 4 Avenue Atlantic Av-Barclays Ctr
    ## # ... with 455 more rows

``` r
  ##finding the distinct number of stations 
select(subway_data, line, station_name, ada) %>% 
  filter(ada == "TRUE") %>% 
  distinct(line, station_name, ada)
```

    ## # A tibble: 84 x 3
    ##    line            station_name                   ada  
    ##    <chr>           <chr>                          <chr>
    ##  1 4 Avenue        Atlantic Av-Barclays Ctr       TRUE 
    ##  2 4 Avenue        DeKalb Av                      TRUE 
    ##  3 4 Avenue        Pacific St                     TRUE 
    ##  4 42nd St Shuttle Grand Central                  TRUE 
    ##  5 6 Avenue        34th St                        TRUE 
    ##  6 6 Avenue        47-50th Sts Rockefeller Center TRUE 
    ##  7 6 Avenue        Church Av                      TRUE 
    ##  8 63rd Street     21st St                        TRUE 
    ##  9 63rd Street     Lexington Av                   TRUE 
    ## 10 63rd Street     Roosevelt Island               TRUE 
    ## # ... with 74 more rows
…
